P001    Apple               $1.20
#ID    D/M/Y HH:MN    QTY  TOTAL 
.................................
00001  23/10/07 08:15   5   $6.00
00006  23/10/07 09:30  12  $14.40
00011  23/10/07 10:30  13  $15.60
00016  23/10/07 11:45   9  $10.80
00021  23/10/07 13:00  11  $13.20
00026  23/10/07 14:15   7   $8.40
00031  23/10/07 15:30   6   $7.20
00036  23/10/07 16:45   8   $9.60
00041  23/10/07 18:00  17  $20.40
00046  23/10/07 19:15  12  $14.40
        QTY = 100 TOTAL=  $120.00
---------------------------------
P002    Banana              $0.80
#ID    D/M/Y HH:MN    QTY  TOTAL 
.................................
00002  23/10/07 08:25  10   $8.00
00007  23/10/07 09:40   9   $7.20
00012  23/10/07 10:45  12   $9.60
00017  23/10/07 12:00  10   $8.00
00022  23/10/07 13:15  14  $11.20
00027  23/10/07 14:30  15  $12.00
00032  23/10/07 15:45  10   $8.00
00037  23/10/07 17:00   4   $3.20
00042  23/10/07 18:15  18  $14.40
00047  23/10/07 19:30   7   $5.60
        QTY = 109 TOTAL=   $87.20
---------------------------------
P003    Cherry              $2.50
#ID    D/M/Y HH:MN    QTY  TOTAL
.................................
00003  23/10/07 08:40   8  $20.00
00008  23/10/07 09:55   8  $20.00
00013  23/10/07 11:00   7  $17.50
00018  23/10/07 12:15   6  $15.00
00023  23/10/07 13:30  16  $40.00
00028  23/10/07 14:45  19  $47.50
00033  23/10/07 16:00  20  $50.00
00038  23/10/07 17:15  11  $27.50
00043  23/10/07 18:30  16  $40.00
00048  23/10/07 19:45  10  $25.00
        QTY = 121 TOTAL=  $302.50
---------------------------------
P004    Lemon               $3.00
#ID    D/M/Y HH:MN    QTY  TOTAL
.................................
00004  23/10/07 08:50   5  $15.00
00009  23/10/07 10:10  14  $42.00
00014  23/10/07 11:15  15  $45.00
00019  23/10/07 12:30  17  $51.00
00024  23/10/07 13:45   9  $27.00
00029  23/10/07 15:00   2   $6.00
00034  23/10/07 16:15  13  $39.00
00039  23/10/07 17:30   9  $27.00
00044  23/10/07 18:45   5  $15.00
00049  23/10/07 20:00   6  $18.00
        QTY =  95 TOTAL=  $285.00
---------------------------------
P005    Elderberry          $2.20
#ID    D/M/Y HH:MN    QTY  TOTAL
.................................
00005  23/10/07 09:10  16  $35.20
00010  23/10/07 10:20   5  $11.00
00015  23/10/07 11:30   4   $8.80
00020  23/10/07 12:45  18  $39.60
00025  23/10/07 14:00   3   $6.60
00030  23/10/07 15:15  12  $26.40
00035  23/10/07 16:30  14  $30.80
00040  23/10/07 17:45  15  $33.00
00045  23/10/07 19:00  13  $28.60
00050  23/10/07 20:15  11  $24.20
        QTY = 111 TOTAL=  $244.20
---------------------------------
